{
"ttbar":{
"files": ["/data/VLQ/13TeV/production_AT-2.3.41/FinalSamples/user.rnewhous.410000.PowhegPythiaEvtGen.DAOD_EXOT4.e3698_s2608_s2183_r7267_r6282_p2495.AT2.3.41_2016-03-30-ttbar_output.root/user.rnewhous.8036104._000001.output.root"]
},
"sherpa":{
"files": ["/data/VLQ/13TeV/production_AT-2.3.41/FinalSamples/user.rnewhous.361440.Sherpa.DAOD_EXOT4.e4133_s2608_s2183_r7326_r6282_p2495.AT2.3.41_2016-02-16-mc15b_output.root/user.rnewhous.7725712._000001.output.root"]
}
}
